@startuml

title __IMPL's Class Diagram__\n

  namespace fr.cnam.foad.nfa035.badges.fileutils.streaming.serializer {
    namespace impl {
      class fr.cnam.foad.nfa035.badges.fileutils.streaming.serializer.impl.ImageDeserializerBase64DatabaseImpl {
          - sourceOutputStream : OutputStream
          + ImageDeserializerBase64DatabaseImpl()
          + deserialize()
          + getDeserializingStream()
          + getSourceOutputStream()
          + setSourceOutputStream()
      }
    }
  }
  

  namespace fr.cnam.foad.nfa035.badges.fileutils.streaming.serializer {
    namespace impl {
      class fr.cnam.foad.nfa035.badges.fileutils.streaming.serializer.impl.ImageDeserializerBase64StreamingImpl {
          + ImageDeserializerBase64StreamingImpl()
          + getDeserializingStream()
      }
    }
  }
  

  namespace fr.cnam.foad.nfa035.badges.fileutils.streaming.serializer {
    namespace impl {
      class fr.cnam.foad.nfa035.badges.fileutils.streaming.serializer.impl.ImageSerializerBase64DatabaseImpl {
          + getSerializingStream()
          + getSourceInputStream()
          + serialize()
      }
    }
  }
  

  namespace fr.cnam.foad.nfa035.badges.fileutils.streaming.serializer {
    namespace impl {
      class fr.cnam.foad.nfa035.badges.fileutils.streaming.serializer.impl.ImageSerializerBase64StreamingImpl {
          + getSerializingStream()
          + getSourceInputStream()
      }
    }
  }
  

  fr.cnam.foad.nfa035.badges.fileutils.streaming.serializer.impl.ImageDeserializerBase64DatabaseImpl .up.|> fr.cnam.foad.nfa035.badges.fileutils.streaming.serializer.DatabaseDeserializer
  fr.cnam.foad.nfa035.badges.fileutils.streaming.serializer.impl.ImageDeserializerBase64StreamingImpl -up-|> fr.cnam.foad.nfa035.badges.fileutils.streaming.serializer.AbstractStreamingImageDeserializer
  fr.cnam.foad.nfa035.badges.fileutils.streaming.serializer.impl.ImageSerializerBase64DatabaseImpl -up-|> fr.cnam.foad.nfa035.badges.fileutils.streaming.serializer.AbstractStreamingImageSerializer
  fr.cnam.foad.nfa035.badges.fileutils.streaming.serializer.impl.ImageSerializerBase64StreamingImpl -up-|> fr.cnam.foad.nfa035.badges.fileutils.streaming.serializer.AbstractStreamingImageSerializer


right footer


PlantUML diagram generated by SketchIt! (https://bitbucket.org/pmesmeur/sketch.it)
For more information about this tool, please contact philippe.mesmeur@gmail.com
endfooter

@enduml
